^C:\USERS\MURERON\DESKTOP\ONCOVISIONFINAL\MAIN\DEBUG\MAIN.EXE.INTERMEDIATE.MANIFEST
C:\PROGRAM FILES\NVIDIA CORPORATION\NVIEW\NVIEW.DLL
C:\WINDOWS\MICROSOFT.NET\FRAMEWORK\V2.0.50727\MSCORWKS.DLL
C:\WINDOWS\MICROSOFT.NET\FRAMEWORK\V4.0.30319\CLR.DLL
C:\PROGRAM FILES (X86)\MICROSOFT SDKS\WINDOWS\V7.0A\BIN\MT.EXE.CONFIG
C:\USERS\MURERON\DESKTOP\ONCOVISIONFINAL\DEBUG\MAIN.EXE
